{
  "images" : [
    {
      "idiom" : "universal",
      "filename" : "icons8-combo_chart_filled.png",
      "scale" : "1x"
    },
    {
      "idiom" : "universal",
      "filename" : "icons8-line_chart_filled.png",
      "scale" : "2x"
    },
    {
      "idiom" : "universal",
      "scale" : "3x"
    }
  ],
  "info" : {
    "version" : 1,
    "author" : "xcode"
  }
}